%YAML 1.1
%TAG !u! tag:unity3d.com,2011:
--- !u!114 &11400000
MonoBehaviour:
  m_ObjectHideFlags: 0
  m_PrefabParentObject: {fileID: 0}
  m_PrefabInternal: {fileID: 0}
  m_GameObject: {fileID: 0}
  m_Enabled: 1
  m_EditorHideFlags: 0
  m_Script: {fileID: 11500000, guid: 81d6f95a4a5a952419668b535885eead, type: 3}
  m_Name: Shaman
  m_EditorClassIdentifier: 
  _id: c042df66-3df6-48d5-a6c7-79c5e02ddbae
  _name: Shaman
  Description: 
  Requirement:
    Buildings:
    - {fileID: 11400000, guid: 524258a38e7b30f4b92229ec8dd28262, type: 2}
    Researches: []
    Techs: []
  Price:
    Currency:
      _gold: 0
      _gem: 0
    ItemList: []
