%YAML 1.1
%TAG !u! tag:unity3d.com,2011:
--- !u!114 &11400000
MonoBehaviour:
  m_ObjectHideFlags: 0
  m_PrefabParentObject: {fileID: 0}
  m_PrefabInternal: {fileID: 0}
  m_GameObject: {fileID: 0}
  m_Enabled: 1
  m_EditorHideFlags: 0
  m_Script: {fileID: 11500000, guid: 6234e0be6f652cb48a63696eeb1715a3, type: 3}
  m_Name: ItemCrafting_Stone
  m_EditorClassIdentifier: 
  Name: 
  CoolDown: 1
  ItemInput: {fileID: 0}
  ItemOutput: {fileID: 11400000, guid: 93ab4403651af904f962c85e354e806e, type: 2}
